INDEX VERSION 1.126+/Users/tianhao/Eclipse/smss/.metadata/.plugins/org.eclipse.jdt.core
272178059.index
1833648217.index
765977872.index
3712507179.index
4238209716.index
3266567714.index
450555687.index
1384487945.index
770573466.index
1898451578.index
3321539481.index
3302703152.index
3954040986.index
2326659272.index
3004609673.index
1819685514.index
84777399.index
156905802.index
509850834.index
3000285004.index
2545238116.index
4249315662.index
1271342938.index
3550686949.index
